module data/ingestion/producer

go 1.14

require (
	github.com/Shopify/sarama v1.27.2
	github.com/andybalholm/brotli v1.0.1 // indirect
	github.com/gofiber/fiber/v2 v2.3.2
	github.com/klauspost/compress v1.11.6 // indirect
	github.com/valyala/fasthttp v1.19.0 // indirect
	golang.org/x/sys v0.0.0-20210110051926-789bb1bd4061 // indirect
)
